species_modification_prefix = { 
	Neo- 
	Post- 
	Super- 
	Ultra- 
	Meta- 
	Trans- 
	"High " 
}

species_modification_postfix = { 
	Superior
	Variatus
	Mutatis
	Clarus
	Illustratum
}

black_hole_names = {
	"Demons_Maw"
	"Devils_Maw"
	"Hells_Maw"
	"Suskats_Maw"
	"Viskarrons_Maw"
	"Rixikars_Maw"
	"Zultars_Maw"
	"Xulbaks_Maw"
	"Urakhannons_Maw"
	"Yonnoks_Maw"
	"Xuukanis_Black_Hole"
	"Luusaj_Black_Hole"
	"Verrakas_Black_Hole"
	"Geltauri_Black_Hole"
	"Zantaris_Black_Hole"
	"Zorikkan_Black_Hole"
	"Huur_Black_Hole"
	"Faranis_Black_Hole"
	"Gindor_Black_Hole"
	"Nivogi_Black_Hole"
	"Ter_Meku_Black_Hole"
	"Sithonis_Maelstrom"
	"Cibaaran_Maelstrom"
	"Belvares_Maelstrom"
	"Gathri_Maelstrom"
	"Kelvan_Maelstrom"
	"VhaZi_Maelstrom"
	"Jebbens_Maelstrom"
	"Pathabaan_Vortex"
	"Miklors_Vortex"
	"Uzhab_Vortex"
	"Tunari_Vortex"
	"Ribellan_Vortex"
	"Zi_Pok_Vortex"
	"Lithyrian_Vortex"
	"Yameks_Singularity"
	"Broons_Singularity"
	"D-471_Singularity"
	"XT-81_Singularity"
	"LR-9_Singularity"
	"X-941_Singularity"
	"BX-799_Singularity"
	"P94-L_Singularity"
	"Heavens_Gate"
	"Dubious_Abyss"
	"Screeching_Abyss"
	"Blorgs_Bane"
	"Howling_Vortex"
	"Gaping_Maw"
	"Eternal_Horizon"
	"Lights_End"
	"Ascensions_End"
	"Quiet_Dark"
	"Abaddons_Demesne"
	"Eye_of_Hawking"
	"Eye_of_Bal"
}

asteroid_prefix = {
	1337-
	133-D-
	13-S-
	14-S-
	18-
	1ES-
	2195-
	234-
	2940-
	32-PX-
	333P-
	377D-
	39-
	4-
	409F-
	41-CV-
	425-
	47-
	49-F-
	50-K-
	6467-
	88D2-
	8FV-
	8Y-I-
	9192-
	91F-
	944-
	9965-
	A-
	A1-
	AA-23-
	AKU-9-
	AR-2-
	AT-
	AZ-11-
	B12-
	B134-
	B1R-
	B4-3-
	B9-
	BK5-
	BT-
	BT-
	C-
	CCC4-
	CP-01
	CR9-
	D-9-
	DSS-
	DTLF-
	E44-
	E49-
	E-9-R
	EUD-
	F-29-
	FL-
	G1-
	GF53-
	GR-
	H4-
	H-77-
	HAL-
	HL-
	I11-
	IL-
	IU11-
	J00-
	J3L1-
	J999-
	JQQ-1-
	JX4-
	L49-
	LA4-
	LJ-G-
	LK12-
	LM-
	LR-9-
	LV-
	M4-
	M4-
	MF-
	N01-4-
	NCC-
	OD1N-
	ONA-
	P1-
	PO1-
	PT-RE-
	PX-4-
	QH-
	QI778-
	QT1-
	R2-
	R66-
	RF-
	RLS-
	RX2-
	SA-093-
	SL9-
	SP0-
	SSD-
	T-
	T1-T9-
	TBR-
	TD-1-
	TE9-
	TF-B-
	TFL-
	THX-
	TLDR-
	TR44-
	UL1M-
	UT-9-
	V413-
	V4-XN-
	VA99-
	VIR-
	VK1-
	VTR-
	W112-
	W1-H-
	WO-
	WPR-
	WT9-
	WX12-
	X-
	X-12-
	X9-
	XC-
	XR-7-
	XXN-
	YU-5-
	YZ9-
	Z9-
	ZA-19-
	ZI3-
	ZL-1-
	ZR-
}

asteroid_postfix = {
	0004
	001B
	002
	009
	012
	038
	03-A
	044
	076
	0909
	0935
	094
	09-L
	1000
	109-D
	111
	112
	1138
	11B1
	11-F
	12
	138
	140
	141
	193
	2079
	21-12
	233-D
	234
	2340
	2646
	285
	3254
	328
	32-X
	3427
	3452
	34-T1
	3547
	354-F
	35-D
	36367
	37
	394
	397
	399
	3PO
	411
	413
	426
	438
	44-D1
	487
	5498
	55987
	572
	59-C
	619
	63
	63089
	6498
	64-D
	66
	6759
	677
	7
	717
	71-J
	72
	728
	742
	757
	758
	76-1
	78
	784
	800
	811
	83
	845
	85-8
	863
	863
	866
	872
	88
	893
	89-T
	9000
	906
	90-B
	915
	937
	94
	947
	951
	956
	97
	981
	984
	99
	997
	AT
	BR-F
	BS12
	D2
	DX-1
	GR-784
	H45
	IJ-087
	J88
	K14
	LF4
	LT-47
	M11
	NY1K
	OR95
	OT9
	PN-98
	Q38
	QW1
	ST
	T-668
	TS-8
	U-46
	XI2
	XR-1
	Y2K
	Y71
}

star_names = {
	### REAL ###
	"Alpha_Hydri"
	"Beta_Aquilae"
	"Beta_Caeli"
	"Beta_Corvi"
	"Beta_Hydri"
	"Chi_Draconis"
	"Delta_Pavonis"
	"Epsilon_Eridani"
	"Epsilon_Indi"
	"Gamma_Draconis"
	"Lambda_Serpentis"
	"Omicron_Persei"
	"Sigma_Draconis"
	"Tau_Ceti"
	"Tau_Cygni"
	"Zeta_Reticuli"
	Acamar
	Achernar
	Acrux
	Acubens
	Alamak
	Alcor
	Aldebaran
	Aldib
	Algol
	Algorab
	Alioth
	Alkaid
	Almach
	Alphard
	Alphecca
	Altair
	Aludra
	Angetenar
	Antares
	Arcturus
	Arich
	Arrakis
	Ascella
	Asterion
	Asterope
	Atlas
	Avior
	Azaleh
	Azha
	Baham
	Beid
	Bellatrix
	Benetnasch
	Betelgeuse
	Betria
	Biham
	Botein
	Brachium
	Bunda
	Canopus
	Capella
	Caph
	Castor
	Cebelrai
	Celaeno
	Chara
	Cheleb
	Chertan
	Chort
	Cursa
	Cyteen
	Dabih
	Diadem
	Diphda
	Duhr
	Edasich
	Electra
	Elnath
	Enif
	Errai
	Fomalhaut
	Furud
	Gatria
	Gemma
	Gianfar
	Giedi
	Girtab
	Gomeisa
	Grumium
	Hadar
	Haedus
	Haldus
	Hasseleh
	Heka
	Heze
	Hoedus
	Homam
	Hyadum
	Hydrobius
	Izar
	Jabbah
	Jih
	Kajam
	Kastra
	Keid
	Kleeia
	Kochab
	Kornephoros
	Kraz
	Ksora
	Kuma
	Lesath
	Maasym
	Maia
	Marfark
	Markab
	Matar
	Media
	Meissa
	Menchib
	Menkar
	Merga
	Merope
	Mesarthim
	Minchir
	Mintaka
	Mira
	Mirach
	Mirzam
	Mizar
	Muphrid
	Muscida
	Naos
	Nashira
	Navi
	Nekkar
	Nembus
	Neshmet
	Nihal
	Nunki
	Nusakan
	Okul
	Pell
	Phact
	Pherkad
	Pleione
	Polaris
	Pollux
	Porrima
	Propus
	Rana
	Rasalas
	Rasalgethi
	Rasalhague
	Rastaban
	Regor
	Regulus
	Rigel
	Rotanev
	Ruchba
	Rukbat
	Sabik
	Sadalbari
	Sadatoni
	Saiph
	Sargas
	Sasin
	Sceptrum
	Scheat
	Scheddi
	Seginus
	Shaula
	Sheliak
	Sheratan
	Sinistra
	Situla
	Skat
	Spica
	Sterope
	Subra
	Syrma
	Tarazed
	Terebellum
	Thabit
	Theemin
	Thuban
	Tureis
	Tyl
	Unuk
	Ushakaron
	Vega
	Wasat
	Wezen
	Yildun
	Zaniah
	Zaurak
	Zosma
	Zuben
	### FICTIONAL ###
	Abdrade
	Ablapus
	"Absajha_Min"
	Acculum
	Ackmall
	Ackolam
	Aclinda
	Acramalo
	Adar
	Adranell
	Adumir
	Advatir
	Aesir
	Aethos
	Afcheshan
	Afrmyke
	Aglcilles
	Aiastars
	Aiplade
	Ajam
	Ajandis
	Alvyrra
	Amastes
	Ambisia
	Ambor
	Amgathorra
	Amlitzer
	"Ampal_Dir"
	Anachonus
	Anaxador
	Ancastar
	Andack
	"Antak_Rham"
	Aphris
	Appon
	Arayya
	Arbatraeus
	ArDoqd
	Aruz
	Asgard
	Ashimax
	Ashyke
	Ashypso
	Aslund
	Asmore
	Assaniz
	Astarte
	Astinda
	Astore
	Astrkion
	Aswiri
	Aswmade
	Atausnyria
	Athuna
	Athyorix
	Athyr
	Atlabba
	Atmir
	Aulderaan
	Avaconea
	Avalam
	Avim
	Ayfriri
	Azax
	Badukan
	Baeeruta
	Baesta
	Baggol
	Baidaan
	Bajiol
	Balawar
	"Bal_Durk"
	Baltris
	Banagho
	Banthary
	Banthelgaum
	Bapagia
	Baranik
	Barban
	Bardegan
	Bartyam
	Bashpat
	Bastamore
	Batraq
	Bax
	Baxom
	Bazkarat
	Bazzanac
	Belgium
	Bellezir
	Bera
	Beskell
	Beynus
	Beyu
	Beznar
	Bidtox
	Bihiram
	Bihjall
	Bijh
	Bikhul
	Biltron
	Binami
	Bindur
	Bintu
	"Bion_Dazat"
	Bir
	Birana
	"Bir_Zun"
	Bistramar
	Bitrius
	Bivham
	Blondei
	Boeawei
	Boggor
	Boibos
	Bokrimar
	Boldoon
	Bolthor
	Bonos
	Borbagon
	Borce
	"Boro_Baba"
	Borrbo
	Bovatir
	Braddam
	Brakma
	Brallix
	Breek
	Bregglar
	Brigaffa
	Brillisir
	Brink
	Briscoll
	Brius
	Brockan
	Brustam
	Brynnis
	Burtios
	Busim
	Bysh
	Bythia
	Cador
	Caehines
	Cajubus
	Calam
	Camglaria
	Camthrin
	Caranis
	Cardorth
	Carenvall
	Carovon
	Carynno
	Caspadene
	Caugantu
	Cavzek
	Cazzabius
	Cemesta
	Ceul
	Ceyecarro
	Ceyxuemia
	Cezuetov
	Charna
	Chatiib
	Chergamore
	Chetrus
	Chibblar
	Chiiban
	Chiminol
	Chisellion
	Chohar
	Chox
	Churassix
	Ciaciothea
	Cidar
	Cieneagawa
	Cipollan
	Cipux
	Cirban
	Ciue
	Cizar
	Cknoor
	Codria
	Coggan
	Collodor
	Condarra
	Conthim
	"Con_Viab"
	Cordip
	Corinth
	Cormaggas
	Cormaggion
	Cossmallion
	Cothium
	Courus
	Covall
	Covfefe
	Cowhig
	Craxima
	Crescim
	Crimdor
	Culdax
	Cuorilia
	Cuunbar
	Cuuturn
	Cyban
	Daarasta
	Dahlberg
	Dalphene
	Damia
	Damiun
	Dandar
	Dangal
	Daranma
	Darep
	Dargan
	Dastamon
	Dathaana
	Davassa
	Dawcan
	Dearum
	Debbux
	Degantu
	Delcor
	Deomia
	Derellis
	Deres
	Despad
	Deteenal
	Detheris
	Diam
	Dimis
	Dimm
	Dirban
	Dirmius
	Discida
	Distull
	Dithaphoru
	Ditrim
	Diub
	Dodonnam
	Dojack
	Dongar
	Dontaur
	Dorellion
	Dorfil
	Doria
	Dossel
	Dothon
	Dradim
	Dram
	Dressel
	Drisk
	Dristmak
	Dultauri
	Durabbius
	Duracchus
	Durascadon
	Durbatur
	Durth
	Duwix
	Dwithim
	Dwumgar
	Eadominar
	Eam
	Ebbanaur
	Ebbarmacchus
	Ebliuq
	Ebrxinda
	Ebucrosie
	Echtichi
	Ecio
	Ecynth
	Edellimar
	Edemar
	"Edor_Vang"
	Efoll
	Efrov
	Eglomia
	Eglore
	Eglrarvis
	Egouwhyke
	Egrore
	Ehsmyke
	Eibriri
	Eieospone
	Eioafrarvis
	Eiol
	Eissam
	Ejok
	Ekoecromia
	Elderak
	Eliathion
	Ellamir
	Ellor
	Eltheen
	Elthior
	Elthir
	Endirlang
	Enim
	Enkef
	Ennust
	Ensmars
	Enuis
	Eptraban
	Erasmadon
	Erdosca
	Ereness
	Eriga
	Erimadon
	Eroabroria
	Escant
	Escolla
	Escont
	Eshiuq
	Eskellion
	Esmyke
	Esteraeus
	Estreon
	Eswiuq
	"Etan_Stela"
	Ethiuq
	Etrvippe
	Etsceron
	Eugizim
	"Eurav_Wass"
	Evaggimar
	Evarym
	Evexus
	Evfrippe
	Exslillon
	Eychilia
	Ezak
	Faenov
	Faghihinejad
	Falmir
	Faltus
	Fangcor
	Fangnaur
	Fatis
	Fauetera
	Fedeema
	Feggor
	Fejantris
	Feldazir
	Feonus
	Ferathon
	Ferragon
	Fevallion
	"Fia_Nita"
	Fidhilam
	Figizar
	Fihir
	Fijjon
	Fillamir
	Firam
	"Firin_Malba"
	"Fir_Mathrioz"
	Flestia
	Flunph
	Foldora
	Folingar
	Folkel
	Fontral
	Fouahiri
	Frary
	Fuaewei
	Fuelia
	Fujeau
	Fulaz
	Fulbadan
	Fuou
	Fuye
	Gaaria
	Gaee
	Gallamun
	Galpan
	Galurum
	Gardener
	Gatana
	Gathrica
	Gauzor
	Geagawa
	Gedexus
	Geqieturn
	Geronth
	Geulea
	Gidzerak
	Gilprim
	Ginam
	Gindix
	Ginigan
	Ginnog
	Glyderrum
	Goffia
	Gol
	Golba
	Gorim
	Gossok
	Gossomir
	Gothra
	Gottara
	Gozam
	Grekil
	Gribbon
	Grokkan
	Gromen
	Grugmora
	Grunthirst
	Guhur
	Guram
	Guwartan
	Habraq
	Haddnoc
	Hadriccus
	Haduphis
	Hagawa
	Halax
	Halvam
	Hamkad
	Hanneri
	Hantaron
	Haramuth
	Haribas
	Hark
	Havonchir
	Hazra
	Helam
	Hemtares
	Hensedon
	Hesstamur
	Hhabban
	Hiamit
	Hiann
	Higashik-Ata
	Higma
	Hijeroscant
	Hiklam
	Himpra
	Hirim
	Hischmal
	Hithara
	Hithram
	Hittimar
	Hixam
	Hixar
	Hixaros
	Hizar
	Hizzel
	Hlilje
	Hocry
	Hodranus
	Hoeddim
	Hojjam
	Hokaja
	Holdebaana
	Holden
	"Honnam_Ter"
	Horschim
	Hoshfir
	Hotram
	Howoz
	Hozint
	Huntur
	Huph
	Hykkan
	Hyrma
	Hyshma
	Hythara
	Ibacca
	Ibanadar
	Ibleen
	Ibloranda
	Iblyria
	Icheon
	Iflagua
	Iflillon
	Iflore
	Iieystara
	Ijaagin
	Ijax
	Illex
	"Il_Ya"
	Imdar
	Immuthin
	"Impal_Tov"
	Impan
	Imulgaron
	Inegore
	Intham
	Inthor
	Iolam
	Ionides
	Ipiescilia
	Iprgara
	Iram
	Iresta
	Iriamus
	Iriani
	Irim
	Irriamun
	Irthius
	Iruistilia
	Ishnor
	Ishtrum
	Isius
	Ispyria
	Istora
	Iswyria
	Itraben
	Izta
	Izval
	Jabeth
	Jaltham
	Jamor
	Jangal
	Janna
	Japhon
	Japris
	Jarad
	Jardlaphon
	Jasmak
	Jataramus
	Jezemei
	Jhapp
	Jhurope
	Jillis
	Jinkath
	Jinnium
	Joinum
	Jolderuun
	Jompron
	Jondus
	"Jor_Mon_Dir"
	"Josq_Fomat"
	Jughum
	Jugrad
	Julau
	Jumla
	Jundius
	Jurnast
	Kahalajom
	Kahkonen
	Kamia
	Kanadrius
	Kandauri
	Kannam
	Kappler
	Karathor
	Karazit
	Karos
	Kastaba
	Kathea
	Katz
	Kauboros
	Kauri
	Kazon
	Kazoo
	Kehines
	Kelsim
	"Kenn_Hijal"
	Kentharom
	Kerbol
	Kerensa
	Kergaros
	Keso
	Khagaton
	Khamb
	Kharasta
	Khiram
	Khor
	Kibbin
	Kildatha
	Kimithar
	Kiram
	Kodracca
	Kongath
	Korach
	Korgas
	Koria
	Kornaggi
	Kosk
	Koter
	Krakaum
	Krant
	Krash
	Kuiper
	Kunides
	Kuzom
	Lachium
	Ladellikon
	Ladiom
	Landeen
	Landiz
	Lando
	Larbo
	Lastus
	Lathoros
	Lavascio
	Lawam
	Lazon
	Leesak
	Lehmsa
	"Ler_Zumon"
	Lessim
	Lessiria
	Lijiz
	Linngol
	Liram
	Lirril
	Lishval
	Loggam
	Loisar
	Lombidus
	Lothandra
	Lurus
	Lyctabon
	Lyfhir
	Lyrum
	Lythorius
	Lytirin
	Magam
	Maghama
	Majek
	Mang
	Manthall
	Manward
	Mar-Adetta
	Maragdis
	Marath
	Mardom
	Mareenius
	Mareid
	Markaz
	Masqal
	Matsonia
	Mauthula
	Mavall
	Mayer
	Mecura
	Medac
	Medgar
	"Med_Karash"
	Mehrnaz
	Mendoc
	Menok
	Meredith
	Meryl
	Meskeban
	Mestros
	Mihil
	Mili
	Millistamu
	Mindara
	Minokh
	Mirce
	Mithar
	Mitin
	Mius
	Moah
	Molbion
	Molsir
	Monakidir
	Monboth
	Moregard
	Moscot
	Mosthavon
	Mothellum
	Mriik
	Mubblar
	Murust
	Muudstram
	Myrum
	Najaga
	Neddum
	Neetris
	Nemozi
	Niamba
	Nicanda
	Nicor
	Nietz
	Niffra
	Nigiro
	Nijil
	Nimolan
	Nishpan
	Nithascal
	Nixahel
	Nizatorom
	Nodox
	Nodro
	Nokkam
	Nolyon
	Nomotar
	Norberg
	Nordak
	Norgon
	Nostea
	Nugaan
	Nunus
	Nupran
	Nuranka
	Obaeshoth
	Obetellus
	Obiysciuq
	Obleon
	Obnoll
	Obrium
	Obsholla
	Obskyke
	Occidan
	Ocheron
	Ockrom
	Odlamon
	Ofeogliea
	Oglkapus
	Ojlars
	Okopleron
	Olbers
	Olimar
	Olum
	Omaggus
	Onab
	Ophang
	Ophele
	Opriiuq
	Oreb
	Orellia
	Orglion
	Orim
	"Orkam_Fung"
	Orthama
	Oscurn
	Osellus
	Oshimir
	Oslippe
	Osmadin
	Osseq
	Ostichi
	Ostiuq
	Othaana
	Othriga
	Othvomia
	Ovany
	Ovastivum
	Oweprinda
	Owhziea
	Owiecryke
	Oxamon
	Oxcliri
	Ozaggamum
	Padjitauron
	Paggol
	Pandill
	Paraggir
	Parsax
	Pash
	Pathavon
	Patraggor
	Pauunia
	Pavagh
	Peith
	Pennek
	Pennosta
	Pentarum
	Perqim
	Pesch
	Peudeanus
	Peya
	Phargis
	Pharrim
	Phin
	Phonok
	Piddahfir
	Pildram
	Piskus
	Pithria
	Pleeturi
	Plov
	Poaa
	Pobbma
	Poeuter
	Polgara
	Poligar
	"Pollban_Kir"
	Polymar
	Polystea
	Ponnell
	Porabim
	Pothria
	Pouo
	Pozuno
	Prothon
	Prythe
	Pulcor
	Puntrazed
	Pyla
	Pytham
	Qabji
	"Qad_Vhi"
	Qamm
	Qapra
	Qasmathon
	Qastan
	"Qeb_Daraan"
	Qeffoth
	Qenus
	Qifitar
	Qirbus
	Qoclite
	Qorrolla
	Quannaga
	Qurus
	Rabinoc
	Rakaron
	Raltry
	Ramman
	Rammas
	Ranction
	Rantemario
	Rantor
	Raprix
	Raskamir
	Rathadore
	Raxum
	Rayima
	Raznum
	Reagg
	Redamon
	Reddor
	Regganus
	Reshell
	Revak
	Rhodan
	Riadore
	Riak
	Ribblor
	Ridathi
	Riddigus
	Riggott
	Rijjin
	Rimborth
	Rimdur
	Rimmock
	"Rint_Beekun"
	Rippigaur
	Rixim
	Rizor
	Roballius
	Roganoin
	Romaccus
	Romonox
	Romsir
	Romston
	Roolan
	Roscan
	Roschon
	Rothyr
	Rovannic
	Rovgeddi
	Rubiz
	Ruinam
	Runa
	Rundore
	Ruqlar
	Rurius
	Ruthauri
	Ruul
	"Ryl_Somot"
	Rym
	Sabtrok
	Saia
	Saidainope
	Saldar
	Saldropis
	Sallax
	Salluria
	Samderaan
	Samnivik
	Sanach
	Sanopel
	Santedaar
	Saoezuno
	Saolea
	Saonus
	Sapad
	Saphiban
	Sapir
	Saqqis
	Sarack
	Saraklis
	Saramore
	Sarpocchus
	Sasharim
	Sastram
	Sathama
	Satrinias
	Saua
	Sauu
	Savassic
	Sawomia
	Sayhouvis
	Schinik
	Scholl
	Scipiton
	Scodd
	Scorom
	Scorpio
	Seaetera
	Seb
	Segathia
	Sehueturn
	Seifarus
	Seinides
	Selea
	Selnoc
	Seoo
	Seradon
	Serpess
	Sethelbak
	Seyyama
	Shariat
	Shashamar
	Shorax
	Shuckon
	Shulmak
	Shutra
	Siabaulia
	Siccon
	Sidor
	Sidyr
	Sieagawa
	Siet
	Sigge
	Siluj
	Simtinasca
	Siplim
	Sisaja
	Sismak
	Siuhiri
	Siujeinia
	Siuruta
	Siyieuzuno
	Siyliv
	Sjoberg
	Soao
	Soejiemia
	Soeyama
	Soiu
	Sorcimax
	Sosta
	Soval
	Soyun
	Spiram
	Srudma
	Starmagg
	Stebbnar
	Stenlar
	Stimsis
	Stiridon
	Stratal
	Strom
	Sturil
	Subtranius
	Sugeylia
	Suia
	Suter
	Suth
	Suulan
	Suyo
	Swur
	Sym
	Taanafir
	Tadasca
	Taggallion
	Takharam
	Takhvan
	Talan
	Talandra
	Tallasus
	Tammpere
	Taramba
	Taramda
	Targon
	Tarrak
	"Tar_Valemm"
	Tatanga
	Tauagawa
	Taunrak
	Tazri
	Teae
	Tediss
	Teersonia
	Tem
	Tenecca
	Terzam
	Tethell
	Teydialara
	Teytera
	Thaaram
	Thegglan
	Thirimora
	Thradd
	Thrish
	Tiakia
	Tiamat
	Tibbacor
	Tiblic
	Tibor
	Tiffim
	Tigira
	Tinab
	Tiom
	Tiqim
	Tir
	Tiralam
	Tirim
	Tiriyok
	Tirmana
	Tirramore
	Tissilum
	Tiuz
	Toarus
	Toiubos
	Torell
	Toropia
	Torovil
	Torrom
	Toua
	Trab
	Trabalore
	Trabano
	Trabbur
	"Tram_Bodon"
	"Trax_Ofko"
	Trijam
	Trimus
	Trinitar
	Trinnick
	Troidom
	Tronde
	Tropallum
	Trunt
	Tuayama
	Tuban
	Tue
	Tunobo
	Turbick
	Turim
	TVilkait
	Tyastedore
	Tybby
	Tystra
	Ubliea
	Ublion
	Uchbiea
	Uchromia
	Uchxyke
	Ucrichi
	Uflao
	Ugarasti
	Uhgrone
	Uiafladus
	Ulassia
	Uldor
	Ulkad
	Ullus
	Ulm
	Ulym
	Umik
	Unar
	Unaria
	Unatra
	Unif
	Unimar
	Unith
	Unnabin
	Unur
	Uprfarvis
	Uproth
	Upstoth
	Uqallon
	Urallion
	"Uran_Tokh"
	Urill
	Urrom
	Uscomia
	Ushminaria
	Usksion
	Usmzara
	Ussaldon
	Ustir
	Uswkoria
	Uthan
	Uwheron
	Uxfriri
	Uxplorix
	Uyiescapus
	Uzayglore
	Uzun
	Vakradil
	Vana
	Vanniko
	Veit
	Velderaam
	Veldoon
	Vermillion
	Vestallus
	Veyer
	Vhallas
	Vijimar
	Vilth
	ViMaas
	Vinjim
	Virdamon
	Viriak
	Vohaul
	Vokkon
	Voldop
	Voldox
	Vollonis
	Volmaur
	Voon
	Vorsham
	Vumm
	Vurul
	Waiphrid
	Walmoro
	Waltom
	Walzirin
	Wanambis
	Wegmore
	Weiguvis
	Wemoll
	Wendel
	Weou
	Wetij
	Wexellia
	Whaskar
	Wicklar
	Widbarill
	Wiertham
	Wilcam
	Wildore
	Wir
	"Wir_Thosk"
	Wistral
	Withrilli
	Withyr
	Witris
	Witzen
	Wiyter
	Wodriax
	Wolgun
	Wollaeus
	Wouu
	Wua
	Wuae
	"Wum_Jiam"
	Wymos
	Xandebaan
	Xarmaton
	"Xel_Madak"
	Xigar
	Ximpok
	Xir
	Xirak
	Xolomon
	Xolton
	Xudra
	"Xu_Nur"
	Yacury
	Yamal
	Yamither
	Yanduz
	Yarak
	Yarragana
	Ydria
	Yeedixa
	Yeelon
	"Yel_Barrasta"
	Yillion
	Yinin
	Yirba
	Yiriam
	Ylva
	Ynessa
	Yobhanir
	"Yodd_Bem"
	Yomon
	Yon
	Yotla
	Yrgel
	Yrogglia
	Yssom
	Yultup
	Yump
	Yunak
	Yunduk
	Yurus
	Yval
	Zabeen
	Zaffa
	Zanbor
	Zarim
	Zarqon
	Zastea
	Zatar
	Zathmak
	Zedran
	Zeldrah
	Zempek
	Zhir
	Zhoblar
	Ziamon
	Zif
	Zimatullon
	Zimtauri
	Ziobir
	Zipir
	Ziris
	Zirq
	Zithri
	Zoldar
	Zoldiore
	Zom
	Zorf
	Zowod
	"Zulei_Cro"
	Elgerot
	Berni
	Mura
	Thomso
	Plessis
	Poru
	Lane
	Aazrof
	Burs
	Daiglon
	Potap
	Depre
	Meneth
	Mathrop
}

nebula_names = {
	"Picaress_Drift"
	"Yinarim_Nebula"
	"Temestra_Badlands"
	"Arija_Patch"
	"Tyjanock_Expanse"
	"Harriban_Nebula"
	"Erium_Nebula"
	"Najaggus_Veil"
	"Cebellus_Shroud"
	"Yothmore_Shroud"
	"Traxis_Badlands"
	"Sejanis_Expanse"
	"Kanthares_Miasma"
	"Ibannic_Veil"
	"Ultaaran_Miasma"
	"Zhakira_Patch"
	"Zadanis_Nebula"
	"Grasping_Claw_Nebula"
	"Oracles_Grave_Nebula"
	"Demons_Eye_Nebula"
	"Weeping_Ghost_Nebula"
	"Forbidden_Nebula"
	"Crossroads_Nebula"
	"Whispering_Garden_Nebula"
	"Dark_Hopes_Nebula"
	"Shining_Pearl_Nebula"
	"Twin_Fangs_Nebula"
	"Void_Sea_Nebula"
	"Shadow_Nebula"
	"Abbanis_Nebula"
	"Nythran_Expanse"
	"Unar_Patch"
	"Daturi_Expanse"
	"Orantes_Shroud"
	"Gamus_Veil"
	"Shiigur_Nebula"
	"VaelZulush_Nebula"
	"Rebenthi_Dust_Clouds"
	"Jimorban_Dust_Clouds"
	"Disak_Hek_Dust_Clouds"
	"Hirantes_Dust_Clouds"
	"Kiiran_Dust_Clouds"
	"Wimar_Drift"
}
