#############
# Unity buildings
#############

# Regular empire
building_autochthon_monument = {
	base_buildtime = @b1_time

	category = unity

	potential = {
		exists = owner
		building_basic_income_check = yes
		NOT = { has_modifier = slave_colony }
		owner = {
			is_gestalt = no
			is_spiritualist = no
			is_megacorp = no
		}
	}

	destroy_trigger = {
		exists = owner
		OR = {
			has_modifier = slave_colony
			owner = {
				OR = {
					is_gestalt = yes
					is_spiritualist = yes
					is_megacorp = yes
				}
			}
		}
	}

	convert_to = {
		building_temple
		building_hive_node
		building_simulation_1
		building_corporate_monument
	}

	resources = {
		category = planet_buildings
		cost = {
			minerals = @b1_minerals
		}
		upkeep = {
			energy = @b1_upkeep
		}
	}

	planet_modifier = {
		job_culture_worker_add = @b1_jobs
	}

	prerequisites = {
		"tech_cultural_heritage"
	}

	upgrades = {
		building_heritage_site
	}

	show_tech_unlock_if = {
		is_gestalt = no
		is_spiritualist = no
		is_megacorp = no
	}

	triggered_desc = {
		text = job_culture_worker_effect_desc
	}

	ai_weight = {
		weight = 0
		modifier = {
			weight = 5
			OR = {
				has_building = building_research_lab_1
				has_building = building_research_lab_2
				has_building = building_research_lab_3
				is_planet_class = pc_habitat
			}
			NOR = {
				has_building = building_autochthon_monument
				has_building = building_heritage_site
				has_building = building_hypercomms_forum
			}
			owner = {
				has_monthly_income = {
					resource = consumer_goods
					value > 10
				}
			}
		}
	}
}

building_heritage_site = {
	base_buildtime = @b2_time
	can_build = no

	category = unity

	potential = {
		exists = owner
		NOT = { has_modifier = slave_colony }
		owner = {
			is_gestalt = no
			is_spiritualist = no
			is_megacorp = no
		}
	}

	allow = {
		has_upgraded_capital = yes
		buildings_upgrade_allow = yes
	}

	destroy_trigger = {
		exists = owner
		OR = {
			has_modifier = slave_colony
			owner = {
				OR = {
					is_gestalt = yes
					is_spiritualist = yes
					is_megacorp = yes
				}
			}
		}
	}

	convert_to = {
		building_holotemple
		building_simulation_2
		building_hive_cluster
		building_corporate_site
	}

	resources = {
		category = planet_buildings
		cost = {
			minerals = @b2_minerals
			rare_crystals = @b2_rare_cost
		}
		upkeep = {
			energy = @b2_upkeep
			rare_crystals = @b2_rare_upkeep
		}
	}

	planet_modifier = {
		job_culture_worker_add = @b2_jobs
	}

	prerequisites = {
		"tech_heritage_site"
	}

	show_tech_unlock_if = {
		is_gestalt = no
		is_spiritualist = no
		is_megacorp = no
	}

	upgrades = {
		building_hypercomms_forum
	}

	triggered_desc = {
		text = job_culture_worker_effect_desc
	}

	ai_weight = {
		weight = 1
		modifier = {
			factor = 0
			owner = {
				has_monthly_income = {
					resource = consumer_goods
					value < 8
				}
			}
		}
	}
}

building_hypercomms_forum = {
	base_buildtime = @b3_time
	can_build = no

	category = unity

	potential = {
		exists = owner
		NOT = { has_modifier = slave_colony }
		owner = {
			is_gestalt = no
			is_spiritualist = no
			is_megacorp = no
		}
	}

	allow = {
		has_major_upgraded_capital = yes
		buildings_upgrade_allow = yes
	}

	destroy_trigger = {
		exists = owner
		OR = {
			has_modifier = slave_colony
			buildings_no_crystals = yes
			owner = {
				OR = {
					is_gestalt = yes
					is_spiritualist = yes
					is_megacorp = yes
				}
			}
		}
	}

	convert_to = {
		building_sacred_nexus
		building_hive_confluence
		building_simulation_3
		building_corporate_forum
	}

	resources = {
		category = planet_buildings
		cost = {
			minerals = @b3_minerals
			rare_crystals = @b3_rare_cost
		}
		upkeep = {
			energy = @b3_upkeep
			rare_crystals = @b3_rare_upkeep
		}
	}

	planet_modifier = {
		job_culture_worker_add = @b3_jobs
	}

	prerequisites = {
		"tech_hypercomms_forum"
	}

	show_tech_unlock_if = {
		is_gestalt = no
		is_spiritualist = no
		is_megacorp = no
	}

	triggered_desc = {
		text = job_culture_worker_effect_desc
	}

	ai_weight = {
		weight = 0
		modifier = {
			weight = 1
			buildings_has_crystals = yes
			owner = {
				has_monthly_income = {
					resource = consumer_goods
					value > 8
				}
			}
		}
	}
}

##################
# Spiritualists
##################
building_temple = {
	base_buildtime = @b1_time

	category = unity

	potential = {
		exists = owner
		building_basic_income_check = yes
		owner = { is_spiritualist = yes }
		NOT = { has_modifier = slave_colony }
		OR = {
			owner = { is_ai = no }
			free_building_slots > 0
		}
	}

	destroy_trigger = {
		exists = owner
		OR = {
			owner = { is_spiritualist = no }
			has_modifier = slave_colony
		}
	}

	convert_to = {
		building_hive_node
		building_simulation_1
		building_autochthon_monument
		building_corporate_monument
	}

	planet_modifier = {
		job_priest_add = @b1_jobs
		pop_ethic_spiritualist_attraction_mult = 0.05
	}

	resources = {
		category = planet_buildings
		cost = {
			minerals = @b1_minerals
		}
		upkeep = {
			energy = @b1_upkeep
		}
	}

	upgrades = {
		building_holotemple
	}

	prerequisites = {
		"tech_cultural_heritage"
	}

	show_tech_unlock_if = {
		is_spiritualist = yes
	}

	triggered_desc = {
		text = job_priest_effect_desc
	}

	ai_weight = {
		weight = 25
		modifier = {
			factor = 0
			owner = {
				has_monthly_income = {
					resource = consumer_goods
					value < 8
				}
			}
		}
		modifier = {
			factor = 0.1
			OR = {
				has_building = building_temple
				has_building = building_holotemple
				has_building = building_sacred_nexus
			}
		}
	}
}

building_holotemple = {
	base_buildtime = @b2_time
	can_build = no

	category = unity

	potential = {
		exists = owner
		owner = { is_spiritualist = yes }
		NOT = { has_modifier = slave_colony }
	}

	allow = {
		has_upgraded_capital = yes
		buildings_upgrade_allow = yes
	}

	destroy_trigger = {
		exists = owner
		OR = {
			owner = { is_spiritualist = no }
			has_modifier = slave_colony
		}
	}

	convert_to = {
		building_simulation_2
		building_hive_cluster
		building_heritage_site
		building_corporate_site
	}

	planet_modifier = {
		job_priest_add = @b2_jobs
		pop_ethic_spiritualist_attraction_mult = 0.10
	}

	resources = {
		category = planet_buildings
		cost = {
			minerals = @b2_minerals
			rare_crystals = @b2_rare_cost
		}
		upkeep = {
			energy = @b2_upkeep
			rare_crystals = @b2_rare_upkeep
		}
	}

	upgrades = {
		building_sacred_nexus
	}

	prerequisites = {
		"tech_holographic_rituals"
	}

	triggered_desc = {
		text = job_priest_effect_desc
	}

	ai_weight = {
		weight = 1
		modifier = {
			factor = 0
			owner = {
				has_monthly_income = {
					resource = consumer_goods
					value < 8
				}
			}
		}
	}
}

building_sacred_nexus = {
	base_buildtime = @b3_time
	can_build = no

	category = unity

	potential = {
		exists = owner
		owner = { is_spiritualist = yes }
		NOT = { has_modifier = slave_colony }
	}

	allow = {
		has_major_upgraded_capital = yes
		buildings_upgrade_allow = yes
	}

	destroy_trigger = {
		exists = owner
		OR = {
			owner = { is_spiritualist = no }
			buildings_no_crystals = yes
			has_modifier = slave_colony
		}
	}

	convert_to = {
		building_hypercomms_forum
		building_hive_confluence
		building_simulation_3
		building_corporate_forum
	}

	planet_modifier = {
		job_priest_add = 8
		pop_ethic_spiritualist_attraction_mult = 0.15
	}

	resources = {
		category = planet_buildings
		cost = {
			minerals = @b3_minerals
			rare_crystals = @b3_rare_cost
		}
		upkeep = {
			energy = @b3_upkeep
			rare_crystals = @b3_rare_upkeep
		}
	}

	prerequisites = {
		"tech_consecration_fields"
	}

	triggered_desc = {
		text = job_priest_effect_desc
	}

	ai_weight = {
		weight = 0
		modifier = {
			weight = 1
			buildings_has_crystals = yes
			owner = {
				has_monthly_income = {
					resource = consumer_goods
					value > 8
				}
			}
		}
	}
}

##################
# Hive Minds
##################
building_hive_node = {
	base_buildtime = @b1_time

	category = unity

	potential = {
		exists = owner
		building_relaxed_basic_income_check = yes
		owner = {
			is_hive_empire = yes
		}
	}

	destroy_trigger = {
		exists = owner
		OR = {
			owner = { is_hive_empire = no }
		}
	}

	convert_to = {
		building_temple
		building_simulation_1
		building_autochthon_monument
		building_corporate_monument
	}

	resources = {
		category = planet_buildings
		cost = {
			minerals = @b1_minerals
		}
		upkeep = {
			energy = @b1_upkeep
		}
	}

	planet_modifier = {
		job_synapse_drone_add = @b1_jobs
	}

	triggered_planet_modifier = {
		potential = {
			exists = owner
			owner = {
				has_swapped_tradition = tr_domination_synaptic_extensions
			}
		}
		modifier = {
			planet_housing_add = 2
		}
	}

	prerequisites = {
		"tech_hive_node"
	}

	upgrades = {
		building_hive_cluster
	}

	triggered_desc = {
		text = job_synapse_drone_effect_desc
	}

	on_queued = {
		planet = {
			set_timed_planet_flag = { flag = recent_admin_building_built days = 720 }
		}
	}

	ai_weight = {
		weight = 0

		modifier = {
			weight = 20
			owner = { empire_sprawl_over_cap > 0 }
		}
		modifier = {
			weight = 50
			owner = { empire_sprawl_over_cap > 10 }
		}
		modifier = {
			weight = 100
			owner = { empire_sprawl_over_cap > 20 }
		}
		modifier = {
			weight = 500
			owner = { empire_sprawl_over_cap > 40 }
		}

		modifier = {
			weight = 0
			has_planet_flag = recent_admin_building_built
		}
	}
}

building_hive_cluster = {
	base_buildtime = @b2_time
	can_build = no

	category = unity

	potential = {
		exists = owner
		owner = {
			is_hive_empire = yes
		}
	}

	allow = {
		has_upgraded_capital = yes
		buildings_upgrade_allow = yes
	}

	destroy_trigger = {
		exists = owner
		owner = { is_hive_empire = no }
	}

	convert_to = {
		building_holotemple
		building_simulation_2
		building_heritage_site
		building_corporate_site
	}

	resources = {
		category = planet_buildings
		cost = {
			minerals = @b2_minerals
			exotic_gases = @b2_rare_cost
		}
		upkeep = {
			energy = @b2_upkeep
			exotic_gases = @b2_rare_upkeep
		}
	}

	planet_modifier = {
		job_synapse_drone_add = @b2_jobs
	}

	triggered_planet_modifier = {
		potential = {
			exists = owner
			owner = {
				has_swapped_tradition = tr_domination_synaptic_extensions
			}
		}
		modifier = {
			planet_housing_add = 2
		}
	}

	prerequisites = {
		"tech_hive_cluster"
	}

	upgrades = {
		building_hive_confluence
	}

	triggered_desc = {
		text = job_synapse_drone_effect_desc
	}

	on_queued = {
		planet = {
			set_timed_planet_flag = { flag = recent_admin_building_built days = 720 }
		}
	}

	ai_weight = {
		weight = 10
		modifier = {
			factor = 0.5
			owner = {
				has_monthly_income = {
					resource = food
					value < 25
				}
			}
		}
		modifier = {
			factor = 2
			owner = { empire_sprawl_over_cap > 0 }
		}
		modifier = {
			factor = 2
			owner = { empire_sprawl_over_cap > 10 }
		}
		modifier = {
			factor = 2
			owner = { empire_sprawl_over_cap > 20 }
		}
		modifier = {
			factor = 2
			owner = { empire_sprawl_over_cap > 40 }
		}
	}
}

building_hive_confluence = {
	base_buildtime = @b3_time
	can_build = no

	category = unity

	potential = {
		exists = owner
		owner = {
			is_hive_empire = yes
		}
	}

	allow = {
		has_major_upgraded_capital = yes
		buildings_upgrade_allow = yes
	}

	destroy_trigger = {
		exists = owner
		owner = { is_hive_empire = no }
		buildings_no_crystals = yes
	}

	convert_to = {
		building_sacred_nexus
		building_system_conflux
		building_hypercomms_forum
		building_corporate_forum
	}

	resources = {
		category = planet_buildings
		cost = {
			minerals = @b3_minerals
			exotic_gases = @b2_rare_upkeep
		}
		upkeep = {
			energy = @b3_upkeep
			exotic_gases = @b3_rare_upkeep
		}
	}

	planet_modifier = {
		job_synapse_drone_add = @b3_jobs
	}

	triggered_planet_modifier = {
		potential = {
			exists = owner
			owner = {
				has_swapped_tradition = tr_domination_synaptic_extensions
			}
		}
		modifier = {
			planet_housing_add = 2
		}
	}

	prerequisites = {
		"tech_hive_confluence"
	}

	triggered_desc = {
		text = job_synapse_drone_effect_desc
	}

	ai_weight = {
		weight = 0
		modifier = {
			weight = 10
			buildings_has_crystals = yes
			owner = {
				has_monthly_income = {
					resource = food
					value > 8
				}
			}
		}
		modifier = {
			factor = 2
			owner = { empire_sprawl_over_cap > 0 }
		}
		modifier = {
			factor = 2
			owner = { empire_sprawl_over_cap > 10 }
		}
		modifier = {
			factor = 2
			owner = { empire_sprawl_over_cap > 20 }
		}
		modifier = {
			factor = 2
			owner = { empire_sprawl_over_cap > 40 }
		}
	}

	on_queued = {
		planet = {
			set_timed_planet_flag = { flag = recent_admin_building_built days = 720 }
		}
	}
}

##################
# Machine Empires
##################
building_simulation_1 = {
	base_buildtime = @b1_time
	icon = building_holo_theatres

	category = unity

	potential = {
		exists = owner
		building_basic_income_check  = yes
		owner = {
			is_machine_empire = yes
			NOT = { has_valid_civic = civic_machine_servitor }
		}
	}

	destroy_trigger = {
		exists = owner
		owner = {
			OR = {
				is_machine_empire = no
				has_valid_civic = civic_machine_servitor
			}
		}
	}

	convert_to = {
		building_temple
		building_hive_node
		building_autochthon_monument
		building_corporate_monument
	}

	resources = {
		category = planet_buildings
		cost = {
			minerals = @b1_minerals
		}
		upkeep = {
			energy = @b1_upkeep
		}
	}

	planet_modifier = {
		job_evaluator_add = @b1_jobs
	}

	prerequisites = {
		"tech_cultural_heritage"
	}

	show_tech_unlock_if = {
		owner = { is_machine_empire = yes }
		NOT = { has_valid_civic = civic_machine_servitor }
	}

	upgrades = {
		building_simulation_2
	}

	triggered_desc = {
		text = job_evaluator_effect_desc
	}

	ai_weight = {
		weight = 5
		modifier = {
			factor = 0
			OR = {
				has_building = building_simulation_1
				has_building = building_simulation_2
				has_building = building_simulation_3
			}
		}
	}
}

building_simulation_2 = {
	base_buildtime = @b2_time
	can_build = no
	icon = building_hyper_entertainment_forum

	category = unity

	potential = {
		exists = owner
		owner = {
			is_machine_empire = yes
			NOT = { has_valid_civic = civic_machine_servitor }
		}
	}

	allow = {
		has_upgraded_capital = yes
		buildings_upgrade_allow = yes
	}

	destroy_trigger = {
		exists = owner
		owner = {
			OR = {
				is_machine_empire = no
				has_valid_civic = civic_machine_servitor
			}
		}
	}

	convert_to = {
		building_holotemple
		building_hive_cluster
		building_heritage_site
		building_corporate_site
	}

	resources = {
		category = planet_buildings
		cost = {
			minerals = @b2_minerals
			rare_crystals = @b2_rare_cost
		}
		upkeep = {
			energy = @b2_upkeep
			rare_crystals = @b2_rare_upkeep
		}
	}

	planet_modifier = {
		job_evaluator_add = @b2_jobs
	}

	prerequisites = {
		"tech_heritage_site"
	}

	show_tech_unlock_if = {
		is_machine_empire = yes
	}

	upgrades = {
		building_simulation_3
	}

	triggered_desc = {
		text = job_evaluator_effect_desc
	}

	ai_weight = {
		weight = 0
		modifier = {
			weight = 1
			buildings_has_crystals = yes
		}
	}
}

building_simulation_3 = {
	base_buildtime = @b3_time
	can_build = no
	icon = building_citadel_of_faith

	category = unity

	potential = {
		exists = owner
		owner = {
			is_machine_empire = yes
			NOT = { has_valid_civic = civic_machine_servitor }
		}
	}

	allow = {
		has_major_upgraded_capital = yes
		buildings_upgrade_allow = yes
	}

	destroy_trigger = {
		exists = owner
		OR = {
			owner = {
				OR = {
					is_machine_empire = no
					has_valid_civic = civic_machine_servitor
				}
			}
			buildings_no_crystals = yes
		}
	}

	convert_to = {
		building_sacred_nexus
		building_hive_confluence
		building_hypercomms_forum
		building_corporate_forum
	}

	resources = {
		category = planet_buildings
		cost = {
			minerals = @b3_minerals
			rare_crystals = @b3_rare_cost
		}
		upkeep = {
			energy = @b3_upkeep
			rare_crystals = @b3_rare_upkeep
		}
	}

	planet_modifier = {
		job_evaluator_add = @b3_jobs
	}

	prerequisites = {
		"tech_hypercomms_forum"
	}

	show_tech_unlock_if = {
		is_machine_empire = yes
	}

	triggered_desc = {
		text = job_evaluator_effect_desc
	}

	ai_weight = {
		weight = 0
		modifier = {
			weight = 1
			buildings_has_crystals = yes
		}
	}
}

##################
# Megacorps
##################
building_corporate_monument = {
	base_buildtime = @b1_time
	icon = building_autochthon_monument

	category = unity

	potential = {
		exists = owner
		building_basic_income_check = yes
		NOT = { has_modifier = slave_colony }
		owner = {
			is_megacorp = yes
			is_spiritualist = no
		}
	}

	destroy_trigger = {
		exists = owner
		OR = {
			has_modifier = slave_colony
			owner = {
				OR = {
					is_megacorp = no
					is_spiritualist = yes
				}
			}
		}
	}

	convert_to = {
		building_temple
		building_hive_node
		building_simulation_1
		building_autochthon_monument
	}

	resources = {
		category = planet_buildings
		cost = {
			minerals = @b1_minerals
		}
		upkeep = {
			energy = @b1_upkeep
		}
	}

	planet_modifier = {
		job_manager_add = @b1_jobs
	}

	prerequisites = {
		"tech_cultural_heritage"
	}

	upgrades = {
		building_corporate_site
	}

	show_tech_unlock_if = {
		is_megacorp = yes
	}

	triggered_desc = {
		text = job_manager_effect_desc
	}

	ai_weight = {
		weight = 0
		modifier = {
			weight = 2
			owner = {
				has_monthly_income = {
					resource = consumer_goods
					value > 10
				}
			}
			NOR = {
				has_building = building_corporate_monument
				has_building = building_corporate_site
				has_building = building_corporate_forum
			}
		}
	}
}

building_corporate_site = {
	base_buildtime = @b2_time
	can_build = no
	icon = building_heritage_site

	category = unity

	potential = {
		exists = owner
		NOT = { has_modifier = slave_colony }
		owner = {
			is_megacorp = yes
			is_spiritualist = no
		}
	}

	allow = {
		has_upgraded_capital = yes
		buildings_upgrade_allow = yes
	}

	destroy_trigger = {
		exists = owner
		OR = {
			has_modifier = slave_colony
			buildings_no_crystals = yes
			owner = {
				OR = {
					is_megacorp = no
					is_spiritualist = yes
				}
			}
		}
	}

	convert_to = {
		building_holotemple
		building_hive_cluster
		building_heritage_site
		building_network_junction
	}

	resources = {
		category = planet_buildings
		cost = {
			minerals = @b2_minerals
			rare_crystals = @b2_rare_cost
		}
		upkeep = {
			energy = @b2_upkeep
			rare_crystals = @b2_rare_upkeep
		}
	}

	planet_modifier = {
		job_manager_add = @b2_jobs
	}

	prerequisites = {
		"tech_heritage_site"
	}

	show_tech_unlock_if = {
		is_megacorp = yes
	}

	upgrades = {
		building_corporate_forum
	}

	triggered_desc = {
		text = job_manager_effect_desc
	}

	ai_weight = {
		weight = 0
		modifier = {
			weight = 1
			buildings_has_crystals = yes
			owner = {
				has_monthly_income = {
					resource = consumer_goods
					value > 8
				}
			}
		}
	}
}

building_corporate_forum = {
	base_buildtime = @b3_time
	can_build = no
	icon = building_hypercomms_forum

	category = unity

	potential = {
		exists = owner
		NOT = { has_modifier = slave_colony }
		owner = {
			is_megacorp = yes
			is_spiritualist = no
		}
	}

	allow = {
		has_major_upgraded_capital = yes
		buildings_upgrade_allow = yes
	}

	destroy_trigger = {
		exists = owner
		OR = {
			has_modifier = slave_colony
			owner = {
				OR = {
					is_megacorp = no
					is_spiritualist = yes
				}
			}
		}
	}

	convert_to = {
		building_sacred_nexus
		building_hive_confluence
		building_hypercomms_forum
		building_simulation_3
	}

	resources = {
		category = planet_buildings
		cost = {
			minerals = @b3_minerals
			rare_crystals = @b3_rare_cost
		}
		upkeep = {
			energy = @b3_upkeep
			rare_crystals = @b3_rare_upkeep
		}
	}

	planet_modifier = {
		job_manager_add = @b3_jobs
	}

	prerequisites = {
		"tech_hypercomms_forum"
	}

	show_tech_unlock_if = {
		is_megacorp = yes
	}

	triggered_desc = {
		text = job_manager_effect_desc
	}

	ai_weight = {
		weight = 1
	}
}

##################
# Unity boosters
##################
building_autocurating_vault = {
	base_buildtime = @b2_time
	base_cap_amount = 1

	category = unity

	potential = {
		exists = owner
		building_basic_income_check = yes
		NOT = { has_modifier = slave_colony }
		owner = {
			is_machine_empire = no
			is_spiritualist = no
			is_megacorp = no
		}
	}

	allow = {
		has_fully_upgraded_capital = yes
	}

	destroy_trigger = {
		exists = owner
		OR = {
			has_modifier = slave_colony
			buildings_no_crystals = yes
	 		owner = {
				OR = {
					is_machine_empire = yes
					is_spiritualist = yes
					is_megacorp = yes
				}
			}
		}
	}

	convert_to = {
		building_citadel_of_faith
		building_alpha_hub
		building_corporate_vault
	}

	resources = {
		category = planet_buildings
		cost = {
			minerals = @b2_minerals
			rare_crystals = @b2_rare_cost
		}
		upkeep = {
			energy = @b2_upkeep
			rare_crystals = @b2_rare_upkeep
		}
		produces = {
			unity = 10
		}
	}

	triggered_planet_modifier = {
		potential = {
			exists = owner
			owner = { is_gestalt = no }
		}
		planet_culture_workers_produces_mult = 0.15
	}

	triggered_planet_modifier = {
		potential = {
			exists = owner
			owner = { is_gestalt = yes }
		}
		planet_synapse_drones_unity_produces_mult = 0.15
	}

	prerequisites = {
		"tech_autocurating_vault"
	}

	show_tech_unlock_if = {
		is_machine_empire = no
		is_spiritualist = no
		is_megacorp = no
	}

	ai_weight = {
		weight = 0
		modifier = {
			weight = 1
			buildings_has_crystals = yes
			owner = {
				has_monthly_income = {
					resource = consumer_goods
					value > 8
				}
			}
		}
	}
}

building_citadel_of_faith = {
	base_buildtime = @b2_time
	base_cap_amount = 1

	category = unity

	potential = {
		exists = owner
		building_basic_income_check = yes
		owner = { is_spiritualist = yes }
		NOT = { has_modifier = slave_colony }
	}

	allow = {
		has_fully_upgraded_capital = yes
		buildings_upgrade_allow = yes
	}

	destroy_trigger = {
		exists = owner
		OR = {
			owner = { is_spiritualist = no }
			has_modifier = slave_colony
			buildings_no_crystals = yes
		}
	}

	convert_to = {
		building_autocurating_vault
		building_alpha_hub
		building_corporate_vault
	}

	planet_modifier = {
		job_priest_add = @b2_jobs
		job_high_priest_add = 1
		pop_ethic_spiritualist_attraction_mult = 0.20
	}

	resources = {
		category = planet_buildings
		cost = {
			minerals = @b2_minerals
			rare_crystals = @b2_rare_cost
		}
		upkeep = {
			energy = @b2_upkeep
			rare_crystals = @b2_rare_upkeep
		}
	}

	prerequisites = {
		"tech_transcendent_faith"
	}

	triggered_desc = {
		text = job_priest_effect_desc
	}

	ai_weight = {
		weight = 0
		modifier = {
			weight = 1
			buildings_has_crystals = yes
			owner = {
				has_monthly_income = {
					resource = consumer_goods
					value > 8
				}
			}
		}
	}
}

building_corporate_vault = {
	base_buildtime = @b3_time
	base_cap_amount = 1
	icon = building_autocurating_vault

	category = unity

	potential = {
		exists = owner
		building_basic_income_check = yes
		NOT = { has_modifier = slave_colony }
		owner = {
			is_megacorp = yes
			is_spiritualist = no
		}
	}

	allow = {
		has_fully_upgraded_capital = yes
	}

	destroy_trigger = {
		exists = owner
		OR = {
			has_modifier = slave_colony
			buildings_no_crystals = yes
			owner = {
				OR = {
					is_megacorp = no
					is_spiritualist = yes
				}
			}
		}
	}

	convert_to = {
		building_citadel_of_faith
		building_autocurating_vault
		building_alpha_hub
	}

	resources = {
		category = planet_buildings
		cost = {
			minerals = @b2_minerals
			rare_crystals = @b2_rare_cost
		}
		upkeep = {
			energy = @b2_upkeep
			rare_crystals = @b2_rare_upkeep
		}
		produces = {
			unity = 10
		}
	}

	planet_modifier = {
		planet_managers_produces_mult = 0.15
	}


	prerequisites = {
		"tech_autocurating_vault"
	}

	show_tech_unlock_if = {
		is_megacorp = yes
	}

	ai_weight = {
		weight = 0
		modifier = {
			weight = 1
			buildings_has_crystals = yes
			owner = {
				has_monthly_income = {
					resource = consumer_goods
					value > 8
				}
			}
		}
	}
}

building_alpha_hub = {
	base_buildtime = @b3_time
	base_cap_amount = 1
	icon = building_autocurating_vault

	category = unity

	potential = {
		exists = owner
		building_basic_income_check = yes
		owner = { is_machine_empire = yes }
	}

	allow = {
		has_fully_upgraded_capital = yes
	}

	destroy_trigger = {
		exists = owner
		OR = {
			owner = { is_machine_empire = no }
			buildings_no_crystals = yes
		}
	}

	convert_to = {
		building_autocurating_vault
		building_citadel_of_faith
		building_corporate_vault
	}

	resources = {
		category = planet_buildings
		cost = {
			minerals = @b2_minerals
			rare_crystals = @b2_rare_cost
		}
		upkeep = {
			energy = @b2_upkeep
			rare_crystals = @b2_rare_upkeep
		}
		produces = {
			unity = 10
		}
	}

	planet_modifier = {
		planet_evaluators_unity_produces_mult = 0.15
	}

	prerequisites = {
		"tech_autocurating_vault"
	}

	prerequisites = {
		"tech_autocurating_vault"
	}

	show_tech_unlock_if = {
		is_machine_empire = yes
	}

	ai_weight = {
		weight = 0
		modifier = {
			weight = 1
			buildings_has_crystals = yes
		}
	}
}

# Servitors
building_organic_sanctuary = {
	base_buildtime = @b1_time

	category = unity

	potential = {
		exists = owner
		owner = { has_valid_civic = civic_machine_servitor }
	}
	
	allow = {
		exists = owner
		OR = {
			owner = { is_ai = no }
			AND = {
				num_buildings = { type = building_organic_sanctuary value < 2 }
				NOT = { has_building = building_organic_paradise }
			}
		}
	}

	destroy_trigger = {
		exists = owner
		OR = {
			owner = {
				NOT = { owner = { has_valid_civic = civic_machine_servitor } }
			}
			AND = {
				owner = { is_ai = yes }
				count_pops = { limit = { has_citizenship_type = { type = citizenship_organic_trophy } } count <= 20 }
				num_buildings = { type = building_organic_sanctuary value > 2 }
			}
			AND = {
				owner = { is_ai = yes }
				count_pops = { limit = { has_citizenship_type = { type = citizenship_organic_trophy } } count <= 40 }
				num_buildings = { type = building_organic_paradise value > 2 }
			}
		}
	}

	convert_to = {
		building_luxury_residence
		building_communal_housing
	}

	planet_modifier = {
		#planet_housing_add = 10
		job_bio_trophy_add = 10
		job_maintenance_drone_add = 1
	}

	resources = {
		category = planet_buildings
		cost = {
			minerals = @b1_minerals
		}
		upkeep = {
			energy = @b1_upkeep
		}
	}

	upgrades = {
		"building_organic_paradise"
	}

	ai_weight = {
		weight = 0
		modifier = {
			weight = 5000
			any_owned_pop = {
				is_unemployed = yes
				has_citizenship_type = { type = citizenship_organic_trophy }
			}
		}
		modifier = {
			weight = 5000
			NOR = {
				has_building = building_organic_sanctuary
				has_building = building_organic_paradise
			}
			planet = {
				owner = {
					any_owned_pop = {
						is_organic_species = yes
						prevprev = { habitability = { who = prev value > 0.5 } }
					}
				}
			}
		}
	}
}

building_organic_paradise = {
	base_buildtime = @b2_time
	can_build = no
	icon = building_paradise_dome

	potential = {
		exists = owner
		owner = { has_valid_civic = civic_machine_servitor }
	}

	destroy_trigger = {
		exists = owner
		NOT = { owner = { has_valid_civic = civic_machine_servitor } }
	}

	convert_to = {
		building_paradise_dome
		building_communal_housing_large
	}

	planet_modifier = {
		#planet_housing_add = 20
		job_bio_trophy_add = 20
		job_maintenance_drone_add = 2
	}

	resources = {
		category = planet_buildings
		cost = {
			minerals = @b2_minerals
			exotic_gases = @b2_rare_cost
		}
		upkeep = {
			energy = @b2_upkeep
			exotic_gases = @b2_rare_upkeep
		}
	}

	prerequisites = { "tech_paradise_dome" }

	show_tech_unlock_if = {
		owner = { has_valid_civic = civic_machine_servitor }
	}

	ai_weight = {
		weight = 0
		modifier = {
			weight = 1
			buildings_has_exotic_gases = yes
		}
	}
}