namespace = distar

# spawn l-cluster
country_event = {
	id = distar.11000
	hide_window = yes

	is_triggered_only = yes

	fire_only_once = yes

	immediate = {
		set_spawn_system_batch = begin
		# batch-processes the spawn_system effects between "begin" and "end",
		# so caches are recalculated only once rather than for every system spawned
		# can also be used when removing and adding hyperlanes
		no_scope = {
			# makes system positions originate from galactic core
			spawn_system = {
				min_distance >= 550
				max_distance <= 560
				min_orientation_angle = 44
				max_orientation_angle = 46
				initializer = distantstars_init_01
			}
			random_system = {
				limit = { has_star_flag = lcluster1 }
				save_global_event_target_as = lcluster1
				spawn_system = {
					min_distance >= 29
					max_distance <= 31
					min_orientation_angle = 24
					max_orientation_angle = 66
					initializer = distantstars_init_02
				}
				spawn_system = {
					min_distance >= 29
					max_distance <= 31
					min_orientation_angle = 114
					max_orientation_angle = 156
					initializer = distantstars_init_03
				}
				spawn_system = {
					min_distance >= 30
					max_distance <= 60
					min_orientation_angle = 340
					max_orientation_angle = 20
					initializer = distantstars_init_01b
				}
			}
			random_system = {
				limit = { has_star_flag = lcluster2 }
				save_global_event_target_as = lcluster2
				spawn_system = {
					min_distance >= 30
					max_distance <= 60
					min_orientation_angle = 0
					max_orientation_angle = 40
					initializer = distantstars_init_02b
				}
			}
			random_system = {
				limit = { has_star_flag = lcluster3 }
				save_global_event_target_as = lcluster3
				spawn_system = {
					min_distance >= 20
					max_distance <= 30
					min_orientation_angle = 24
					max_orientation_angle = 66
					initializer = distantstars_init_04
				}
				spawn_system = {
					min_distance >= 10
					max_distance <= 50
					min_orientation_angle = 250
					max_orientation_angle = 290
					initializer = distantstars_init_03b
				}
			}
			random_system = {
				limit = { has_star_flag = lcluster4 }
				save_global_event_target_as = lcluster4
				spawn_system = {
					min_distance >= 5
					max_distance <= 10
					min_orientation_angle = 250
					max_orientation_angle = 290
					initializer = distantstars_init_05
				}
				spawn_system = {
					min_distance >= 30
					max_distance <= 60
					min_orientation_angle = 20
					max_orientation_angle = 160
					initializer = distantstars_init_04b
				}
			}
		}

		random_system = {
			limit = { has_star_flag = lcluster5 }
			save_global_event_target_as = lcluster5
		}
		random_system = {
			limit = { has_star_flag = lcluster1b }
			save_global_event_target_as = lcluster1b
		}
		random_system = {
			limit = { has_star_flag = lcluster2b }
			save_global_event_target_as = lcluster2b
		}
		random_system = {
			limit = { has_star_flag = lcluster3b }
			save_global_event_target_as = lcluster3b
		}
		random_system = {
			limit = { has_star_flag = lcluster4b }
			save_global_event_target_as = lcluster4b
		}

		# clear all hyperlanes to and within the cluster
		every_system = {
			limit = { has_star_flag = lcluster }
			isolate_system = yes
			every_system_planet = {
				planet_event = {
					id = gpm_engine.1
				}
			}
		}

		# add hyperlanes
		event_target:lcluster5 = {
			add_hyperlane = {
				from = event_target:lcluster5
				to = event_target:lcluster4
			}
		}
		event_target:lcluster4 = {
			add_hyperlane = {
				from = event_target:lcluster4
				to = event_target:lcluster3
			}
			add_hyperlane = {
				from = event_target:lcluster4
				to = event_target:lcluster2
			}
			add_hyperlane = {
				from = event_target:lcluster4
				to = event_target:lcluster4b
			}
		}
		event_target:lcluster3 = {
			add_hyperlane = {
				from = event_target:lcluster3
				to = event_target:lcluster1
			}
			add_hyperlane = {
				from = event_target:lcluster3
				to = event_target:lcluster3b
			}
		}
		event_target:lcluster2 = {
			add_hyperlane = {
				from = event_target:lcluster2
				to = event_target:lcluster1
			}
			add_hyperlane = {
				from = event_target:lcluster2
				to = event_target:lcluster3
			}
			add_hyperlane = {
				from = event_target:lcluster2
				to = event_target:lcluster2b
			}
		}

		event_target:lcluster1 = {
			add_hyperlane = {
				from = event_target:lcluster1
				to = event_target:lcluster1b
			}
		}
		event_target:lcluster1b = {
			add_hyperlane = {
				from = event_target:lcluster1b
				to = event_target:lcluster2b
			}
		}
		set_spawn_system_batch = end
	}
}