tags={
	"Gameplay"
	"Events"
}
name="Archaeology Story Pack"
picture="thumbnail.png"
supported_version="2.7.*"
path="C:/Users/hoon7/Documents/Paradox Interactive/Stellaris/mod/archaeologystorypack"
remote_file_id="1993869579"