version="1.0"
tags={
	"Balance"
}
name="1227620643_dynamic_political_events"
supported_version="2.7.2"
path="C:/Users/Touhma/Documents/Paradox Interactive/Stellaris/mod/1227620643_dynamic_political_events"