version="1.0"
tags={
	"Balance"
}
name="1628912584_ui_overhaul_dynamic_tiny_outliner_v2"
supported_version="2.7.2"
path="C:/Users/Touhma/Documents/Paradox Interactive/Stellaris/mod/1628912584_ui_overhaul_dynamic_tiny_outliner_v2"