version="1.0"
tags={
	"Balance"
}
name="1638423199_extra_buildings_all_in_one"
supported_version="2.7.2"
path="C:/Users/Touhma/Documents/Paradox Interactive/Stellaris/mod/1638423199_extra_buildings_all_in_one"