version="1.0"
tags={
	"Balance"
}
name="1715968157_kaityo_s_tiny_planet_buildings_for_ui_overhaul_dy"
supported_version="2.7.2"
path="C:/Users/Touhma/Documents/Paradox Interactive/Stellaris/mod/1715968157_kaityo_s_tiny_planet_buildings_for_ui_o"