version="1.0"
tags={
	"Balance"
}
name="1747995732_tier_numbers_buildings"
supported_version="2.7.2"
path="C:/Users/Touhma/Documents/Paradox Interactive/Stellaris/mod/1747995732_tier_numbers_buildings"