version="1.0"
tags={
	"Balance"
}
name="1760606868_building_tier_numbers_extra_buildings"
supported_version="2.7.2"
path="C:/Users/Touhma/Documents/Paradox Interactive/Stellaris/mod/1760606868_building_tier_numbers_extra_buildings"