version="1.0"
tags={
	"Balance"
}
name="1828474377_make_the_ai_terraform_again"
supported_version="2.7.2"
path="C:/Users/Touhma/Documents/Paradox Interactive/Stellaris/mod/1828474377_make_the_ai_terraform_again"