version="1.0"
tags={
	"Balance"
}
name="1993018111_ui_overhaul_dynamic_dark_ui"
supported_version="2.7.2"
path="C:/Users/Touhma/Documents/Paradox Interactive/Stellaris/mod/1993018111_ui_overhaul_dynamic_dark_ui"