version="1.0"
tags={
	"Balance"
}
name="1993869579_archaeology_story_pack"
supported_version="2.7.2"
path="C:/Users/Touhma/Documents/Paradox Interactive/Stellaris/mod/1993869579_archaeology_story_pack"