version="1.0"
tags={
	"Balance"
}
name="1995601384_ariphaos_unofficial_patch_2_7"
supported_version="2.7.2"
path="C:/Users/Touhma/Documents/Paradox Interactive/Stellaris/mod/1995601384_ariphaos_unofficial_patch_2_7"