version="1.0"
tags={
	"Balance"
}
name="2027303750_rs_glavius_ai_compatible_mod"
supported_version="2.7.2"
path="C:/Users/Touhma/Documents/Paradox Interactive/Stellaris/mod/2027303750_rs_glavius_ai_compatible_mod"