version="1.0"
tags={
	"Balance"
}
name="2027087815_realistic_ships_2_7_1_lithoid_ship_set_add"
supported_version="2.7.2"
path="C:/Users/Touhma/Documents/Paradox Interactive/Stellaris/mod/2027087815_realistic_ships_2_7_1_lithoid_ship_set_"