version="1.0"
tags={
	"Balance"
}
name="2031609146_all_unique_system_spawns_2_7_x"
supported_version="2.7.2"
path="C:/Users/Touhma/Documents/Paradox Interactive/Stellaris/mod/2031609146_all_unique_system_spawns_2_7_x"