version="1.0"
tags={
	"Balance"
}
name="2064102657_alternative_fallen_empire_buildings"
supported_version="2.7.2"
path="C:/Users/Touhma/Documents/Paradox Interactive/Stellaris/mod/2064102657_alternative_fallen_empire_buildings"