version="1.0"
tags={
	"Balance"
}
name="2098862918_light_borders_star_pins"
supported_version="2.7.2"
path="C:/Users/Touhma/Documents/Paradox Interactive/Stellaris/mod/2098862918_light_borders_star_pins"