version="1.0"
tags={
	"Balance"
}
name="865040033_guilli_s_planet_modifiers_2_7"
supported_version="2.7.2"
path="C:/Users/Touhma/Documents/Paradox Interactive/Stellaris/mod/865040033_guilli_s_planet_modifiers_2_7"