version="3.6.1"
name="Real Space 3.6"
tags={
	"Real Space"
	"Gameplay"
	"Galaxy Generation"
	"Overhaul"
}
picture="thumbnail.png"
supported_version="2.7.2"
path="C:/Users/Touhma/Documents/Paradox Interactive/Stellaris/mod/real_space"
remote_file_id="937289339"