version="1.2"
name="Real Space - New Frontiers"
tags={
	"Galaxy Generation"
	"Events"
	"Overhaul"
}
picture="thumbnail.png"
supported_version="2.7.2"
path="C:/Users/Touhma/Documents/Paradox Interactive/Stellaris/mod/realspace_new_frontiers"
remote_file_id="1588303618"